ply
format ascii 1.0
comment Created by Blender 2.69 (sub 0) - www.blender.org, source file: 'camera.blend'
element vertex 7
property float x
property float y
property float z
property float nx
property float ny
property float nz
element face 2
property list uchar uint vertex_indices
end_header
0.000000 0.000000 0.000000 0.000000 0.000000 -1.000000
0.989950 0.989949 0.000000 0.000000 0.000000 -1.000000
0.989950 -0.000000 0.000000 0.000000 0.000000 -1.000000
0.989949 -0.989950 0.000000 0.000000 0.000000 -1.000000
0.989950 -0.000000 -0.500000 -0.000000 -1.000000 -0.000000
0.989950 -0.000000 0.500000 -0.000000 -1.000000 -0.000000
0.000000 0.000000 0.000000 -0.000000 -1.000000 -0.000000
4 0 1 2 3
3 4 5 6
