# Blender MTL File: 'cube.blend'
# Material Count: 1

newmtl Material
Ns 96.078431
Ka 0.000000 0.000000 0.000000
Kd 1.000000 1.000000 1.000000
Ks 1.000000 1.000000 1.000000
Ni 1.000000
d 1.000000
illum 0
