# Blender MTL File: 'stanford-dragon-2.blend'
# Material Count: 5

newmtl blue_wall
Ns 96.078431
Ka 0.000000 0.000000 0.000000
Kd 0.040000 0.040000 0.800000
Ks 0.500000 0.500000 0.500000
Ni 1.000000
d 1.000000
illum 2

newmtl dragon
Ns 29.411765
Ka 0.000000 0.000000 0.000000
Kd 0.800000 0.800000 0.800000
Ks 0.350000 0.350000 0.350000
Ni 1.000000
d 1.000000
illum 2

newmtl eye
Ns 96.078431
Ka 0.000000 0.000000 0.000000
Kd 1.000000 0.050000 0.050000
Ks 0.500000 0.024853 0.024853
Ni 1.000000
d 1.000000
illum 0

newmtl white_wall
Ns 96.078431
Ka 0.000000 0.000000 0.000000
Kd 0.800000 0.800000 0.800000
Ks 0.500000 0.500000 0.500000
Ni 1.000000
d 1.000000
illum 2

newmtl yellow_wall
Ns 96.078431
Ka 0.000000 0.000000 0.000000
Kd 0.800000 0.800000 0.040000
Ks 0.500000 0.500000 0.500000
Ni 1.000000
d 1.000000
illum 2
